\relax 
\@writefile{toc}{\contentsline {section}{\numberline {1}Classes and Main}{1}}
\@writefile{toc}{\contentsline {section}{\numberline {2}Print}{1}}
\@writefile{toc}{\contentsline {section}{\numberline {3}Declaring Variables}{1}}
\@writefile{toc}{\contentsline {section}{\numberline {4}Print Concat in Kotlin}{1}}
\@writefile{toc}{\contentsline {section}{\numberline {5}Explicitly Define Variable}{2}}
\@writefile{toc}{\contentsline {section}{\numberline {6}User Input}{2}}
\@writefile{toc}{\contentsline {section}{\numberline {7}Basic Math}{2}}
\@writefile{toc}{\contentsline {section}{\numberline {8}Change Data Type}{2}}
\@writefile{toc}{\contentsline {section}{\numberline {9}Conditional Operators}{2}}
\@writefile{toc}{\contentsline {section}{\numberline {10}if Statement}{3}}
\@writefile{toc}{\contentsline {section}{\numberline {11}while Loop}{3}}
\@writefile{toc}{\contentsline {section}{\numberline {12}Functions}{3}}
\@writefile{toc}{\contentsline {section}{\numberline {13}Global Vairable}{3}}
\@writefile{toc}{\contentsline {section}{\numberline {14}Classes}{4}}
\@writefile{toc}{\contentsline {section}{\numberline {15}Inheritance}{4}}
\@writefile{toc}{\contentsline {section}{\numberline {16}Access Modifiers}{5}}
